…
Answer to exercise 1.3:

``` r
gapminder %>%
    mutate(PreviouslifeExp=lag(lifeExp)) %>%
    filter(lifeExp-PreviouslifeExp<0) %>%
    select(-PreviouslifeExp)
```

    ## # A tibble: 221 x 6
    ##    country    continent  year lifeExp      pop gdpPercap
    ##    <fct>      <fct>     <int>   <dbl>    <int>     <dbl>
    ##  1 Albania    Europe     1992    71.6  3326498     2497.
    ##  2 Algeria    Africa     1952    43.1  9279525     2449.
    ##  3 Angola     Africa     1952    30.0  4232095     3521.
    ##  4 Angola     Africa     1987    39.9  7874230     2430.
    ##  5 Australia  Oceania    1952    69.1  8691212    10040.
    ##  6 Austria    Europe     1952    66.8  6927772     6137.
    ##  7 Bahrain    Asia       1952    50.9   120447     9867.
    ##  8 Bangladesh Asia       1952    37.5 46886859      684.
    ##  9 Benin      Africa     1952    38.2  1738315     1063.
    ## 10 Benin      Africa     2002    54.4  7026113     1373.
    ## # ... with 211 more rows

Answer to exercise 1.4 part 1:

``` r
gapminder %>%
    group_by(country) %>% 
    filter(gdpPercap==max(gdpPercap))
```

    ## # A tibble: 142 x 6
    ## # Groups:   country [142]
    ##    country     continent  year lifeExp       pop gdpPercap
    ##    <fct>       <fct>     <int>   <dbl>     <int>     <dbl>
    ##  1 Afghanistan Asia       1982    39.9  12881816      978.
    ##  2 Albania     Europe     2007    76.4   3600523     5937.
    ##  3 Algeria     Africa     2007    72.3  33333216     6223.
    ##  4 Angola      Africa     1967    36.0   5247469     5523.
    ##  5 Argentina   Americas   2007    75.3  40301927    12779.
    ##  6 Australia   Oceania    2007    81.2  20434176    34435.
    ##  7 Austria     Europe     2007    79.8   8199783    36126.
    ##  8 Bahrain     Asia       2007    75.6    708573    29796.
    ##  9 Bangladesh  Asia       2007    64.1 150448339     1391.
    ## 10 Belgium     Europe     2007    79.4  10392226    33693.
    ## # ... with 132 more rows
…
